[{"page":1,"pages":2,"per_page":50,"total":66,"sourceid":"2","lastupdated":"2026-04-08"},[{"indicator":{"id":"NY.GDP.MKTP.CD","value":"GDP (current US$)"},"country":{"id":"CO","value":"Colombia"},"countryiso3code":"COL","date":"2025","value":null,"unit":"","obs_status":"","decimal":0},{"indicator":{"id":"NY.GDP.MKTP.CD","value":"GDP (current US$)"},"country":{"id":"CO","value":"Colombia"},"countryiso3code":"COL","date":"2024","value":418818154879.271,"unit":"","obs_status":"","decimal":0},{"indicator":{"id":"NY.GDP.MKTP.CD","value":"GDP (current US$)"},"country":{"id":"CO","value":"Colombia"},"countryiso3code":"COL","date":"2023","value":366291836137.916,"unit":"","obs_status":"","decimal":0},{"indicator":{"id":"NY.GDP.MKTP.CD","value":"GDP (current US$)"},"country":{"id":"CO","value":"Colombia"},"countryiso3code":"COL","date":"2022","value":345632492851.448,"unit":"","obs_status":"","decimal":0},{"indicator":{"id":"NY.GDP.MKTP.CD","value":"GDP (current US$)"},"country":{"id":"CO","value":"Colombia"},"countryiso3code":"COL","date":"2021","value":318524633225.395,"unit":"","obs_status":"","decimal":0},{"indicator":{"id":"NY.GDP.MKTP.CD","value":"GDP (current US$)"},"country":{"id":"CO","value":"Colombia"},"countryiso3code":"COL","date":"2020","value":270348342541.465,"unit":"","obs_status":"","decimal":0},{"indicator":{"id":"NY.GDP.MKTP.CD","value":"GDP (current US$)"},"country":{"id":"CO","value":"Colombia"},"countryiso3code":"COL","date":"2019","value":323031701192.84,"unit":"","obs_status":"","decimal":0},{"indicator":{"id":"NY.GDP.MKTP.CD","value":"GDP (current US$)"},"country":{"id":"CO","value":"Colombia"},"countryiso3code":"COL","date":"2018","value":334198218098.276,"unit":"","obs_status":"","decimal":0},{"indicator":{"id":"NY.GDP.MKTP.CD","value":"GDP (current US$)"},"country":{"id":"CO","value":"Colombia"},"countryiso3code":"COL","date":"2017","value":311866875156.879,"unit":"","obs_status":"","decimal":0},{"indicator":{"id":"NY.GDP.MKTP.CD","value":"GDP (current US$)"},"country":{"id":"CO","value":"Colombia"},"countryiso3code":"COL","date":"2016","value":282720100286.228,"unit":"","obs_status":"","decimal":0},{"indicator":{"id":"NY.GDP.MKTP.CD","value":"GDP (current US$)"},"country":{"id":"CO","value":"Colombia"},"countryiso3code":"COL","date":"2015","value":293492370193.166,"unit":"","obs_status":"","decimal":0},{"indicator":{"id":"NY.GDP.MKTP.CD","value":"GDP (current US$)"},"country":{"id":"CO","value":"Colombia"},"countryiso3code":"COL","date":"2014","value":381240864422.407,"unit":"","obs_status":"","decimal":0},{"indicator":{"id":"NY.GDP.MKTP.CD","value":"GDP (current US$)"},"country":{"id":"CO","value":"Colombia"},"countryiso3code":"COL","date":"2013","value":382093697077.685,"unit":"","obs_status":"","decimal":0},{"indicator":{"id":"NY.GDP.MKTP.CD","value":"GDP (current US$)"},"country":{"id":"CO","value":"Colombia"},"countryiso3code":"COL","date":"2012","value":370691143018.039,"unit":"","obs_status":"","decimal":0},{"indicator":{"id":"NY.GDP.MKTP.CD","value":"GDP (current US$)"},"country":{"id":"CO","value":"Colombia"},"countryiso3code":"COL","date":"2011","value":334966134804.887,"unit":"","obs_status":"","decimal":0},{"indicator":{"id":"NY.GDP.MKTP.CD","value":"GDP (current US$)"},"country":{"id":"CO","value":"Colombia"},"countryiso3code":"COL","date":"2010","value":286498534094.963,"unit":"","obs_status":"","decimal":0},{"indicator":{"id":"NY.GDP.MKTP.CD","value":"GDP (current US$)"},"country":{"id":"CO","value":"Colombia"},"countryiso3code":"COL","date":"2009","value":232468663109.595,"unit":"","obs_status":"","decimal":0},{"indicator":{"id":"NY.GDP.MKTP.CD","value":"GDP (current US$)"},"country":{"id":"CO","value":"Colombia"},"countryiso3code":"COL","date":"2008","value":242504150472.931,"unit":"","obs_status":"","decimal":0},{"indicator":{"id":"NY.GDP.MKTP.CD","value":"GDP (current US$)"},"country":{"id":"CO","value":"Colombia"},"countryiso3code":"COL","date":"2007","value":206229540926.312,"unit":"","obs_status":"","decimal":0},{"indicator":{"id":"NY.GDP.MKTP.CD","value":"GDP (current US$)"},"country":{"id":"CO","value":"Colombia"},"countryiso3code":"COL","date":"2006","value":161792958904.864,"unit":"","obs_status":"","decimal":0},{"indicator":{"id":"NY.GDP.MKTP.CD","value":"GDP (current US$)"},"country":{"id":"CO","value":"Colombia"},"countryiso3code":"COL","date":"2005","value":145600529605.803,"unit":"","obs_status":"","decimal":0},{"indicator":{"id":"NY.GDP.MKTP.CD","value":"GDP (current US$)"},"country":{"id":"CO","value":"Colombia"},"countryiso3code":"COL","date":"2004","value":117092416666.245,"unit":"","obs_status":"","decimal":0},{"indicator":{"id":"NY.GDP.MKTP.CD","value":"GDP (current US$)"},"country":{"id":"CO","value":"Colombia"},"countryiso3code":"COL","date":"2003","value":94644969157.0987,"unit":"","obs_status":"","decimal":0},{"indicator":{"id":"NY.GDP.MKTP.CD","value":"GDP (current US$)"},"country":{"id":"CO","value":"Colombia"},"countryiso3code":"COL","date":"2002","value":97945812802.8882,"unit":"","obs_status":"","decimal":0},{"indicator":{"id":"NY.GDP.MKTP.CD","value":"GDP (current US$)"},"country":{"id":"CO","value":"Colombia"},"countryiso3code":"COL","date":"2001","value":98200641203.3892,"unit":"","obs_status":"","decimal":0},{"indicator":{"id":"NY.GDP.MKTP.CD","value":"GDP (current US$)"},"country":{"id":"CO","value":"Colombia"},"countryiso3code":"COL","date":"2000","value":99875074951.0278,"unit":"","obs_status":"","decimal":0},{"indicator":{"id":"NY.GDP.MKTP.CD","value":"GDP (current US$)"},"country":{"id":"CO","value":"Colombia"},"countryiso3code":"COL","date":"1999","value":86186158684.7685,"unit":"","obs_status":"","decimal":0},{"indicator":{"id":"NY.GDP.MKTP.CD","value":"GDP (current US$)"},"country":{"id":"CO","value":"Colombia"},"countryiso3code":"COL","date":"1998","value":98443739941.1664,"unit":"","obs_status":"","decimal":0},{"indicator":{"id":"NY.GDP.MKTP.CD","value":"GDP (current US$)"},"country":{"id":"CO","value":"Colombia"},"countryiso3code":"COL","date":"1997","value":106659508271.255,"unit":"","obs_status":"","decimal":0},{"indicator":{"id":"NY.GDP.MKTP.CD","value":"GDP (current US$)"},"country":{"id":"CO","value":"Colombia"},"countryiso3code":"COL","date":"1996","value":97160109277.8087,"unit":"","obs_status":"","decimal":0},{"indicator":{"id":"NY.GDP.MKTP.CD","value":"GDP (current US$)"},"country":{"id":"CO","value":"Colombia"},"countryiso3code":"COL","date":"1995","value":92507279383.0387,"unit":"","obs_status":"","decimal":0},{"indicator":{"id":"NY.GDP.MKTP.CD","value":"GDP (current US$)"},"country":{"id":"CO","value":"Colombia"},"countryiso3code":"COL","date":"1994","value":81703500846.0364,"unit":"","obs_status":"","decimal":0},{"indicator":{"id":"NY.GDP.MKTP.CD","value":"GDP (current US$)"},"country":{"id":"CO","value":"Colombia"},"countryiso3code":"COL","date":"1993","value":66446804802.5747,"unit":"","obs_status":"","decimal":0},{"indicator":{"id":"NY.GDP.MKTP.CD","value":"GDP (current US$)"},"country":{"id":"CO","value":"Colombia"},"countryiso3code":"COL","date":"1992","value":58418985443.3172,"unit":"","obs_status":"","decimal":0},{"indicator":{"id":"NY.GDP.MKTP.CD","value":"GDP (current US$)"},"country":{"id":"CO","value":"Colombia"},"countryiso3code":"COL","date":"1991","value":49175565911.0655,"unit":"","obs_status":"","decimal":0},{"indicator":{"id":"NY.GDP.MKTP.CD","value":"GDP (current US$)"},"country":{"id":"CO","value":"Colombia"},"countryiso3code":"COL","date":"1990","value":47844090709.9908,"unit":"","obs_status":"","decimal":0},{"indicator":{"id":"NY.GDP.MKTP.CD","value":"GDP (current US$)"},"country":{"id":"CO","value":"Colombia"},"countryiso3code":"COL","date":"1989","value":39540080200.3938,"unit":"","obs_status":"","decimal":0},{"indicator":{"id":"NY.GDP.MKTP.CD","value":"GDP (current US$)"},"country":{"id":"CO","value":"Colombia"},"countryiso3code":"COL","date":"1988","value":39212550050.4223,"unit":"","obs_status":"","decimal":0},{"indicator":{"id":"NY.GDP.MKTP.CD","value":"GDP (current US$)"},"country":{"id":"CO","value":"Colombia"},"countryiso3code":"COL","date":"1987","value":36373307085.0887,"unit":"","obs_status":"","decimal":0},{"indicator":{"id":"NY.GDP.MKTP.CD","value":"GDP (current US$)"},"country":{"id":"CO","value":"Colombia"},"countryiso3code":"COL","date":"1986","value":34942489683.9712,"unit":"","obs_status":"","decimal":0},{"indicator":{"id":"NY.GDP.MKTP.CD","value":"GDP (current US$)"},"country":{"id":"CO","value":"Colombia"},"countryiso3code":"COL","date":"1985","value":34894411351.983,"unit":"","obs_status":"","decimal":0},{"indicator":{"id":"NY.GDP.MKTP.CD","value":"GDP (current US$)"},"country":{"id":"CO","value":"Colombia"},"countryiso3code":"COL","date":"1984","value":38253120737.9671,"unit":"","obs_status":"","decimal":0},{"indicator":{"id":"NY.GDP.MKTP.CD","value":"GDP (current US$)"},"country":{"id":"CO","value":"Colombia"},"countryiso3code":"COL","date":"1983","value":38729822781.5997,"unit":"","obs_status":"","decimal":0},{"indicator":{"id":"NY.GDP.MKTP.CD","value":"GDP (current US$)"},"country":{"id":"CO","value":"Colombia"},"countryiso3code":"COL","date":"1982","value":38968039721.748,"unit":"","obs_status":"","decimal":0},{"indicator":{"id":"NY.GDP.MKTP.CD","value":"GDP (current US$)"},"country":{"id":"CO","value":"Colombia"},"countryiso3code":"COL","date":"1981","value":36388366869.0309,"unit":"","obs_status":"","decimal":0},{"indicator":{"id":"NY.GDP.MKTP.CD","value":"GDP (current US$)"},"country":{"id":"CO","value":"Colombia"},"countryiso3code":"COL","date":"1980","value":33400735644.0481,"unit":"","obs_status":"","decimal":0},{"indicator":{"id":"NY.GDP.MKTP.CD","value":"GDP (current US$)"},"country":{"id":"CO","value":"Colombia"},"countryiso3code":"COL","date":"1979","value":27940411250.2732,"unit":"","obs_status":"","decimal":0},{"indicator":{"id":"NY.GDP.MKTP.CD","value":"GDP (current US$)"},"country":{"id":"CO","value":"Colombia"},"countryiso3code":"COL","date":"1978","value":23263511958.0509,"unit":"","obs_status":"","decimal":0},{"indicator":{"id":"NY.GDP.MKTP.CD","value":"GDP (current US$)"},"country":{"id":"CO","value":"Colombia"},"countryiso3code":"COL","date":"1977","value":19470960619.1297,"unit":"","obs_status":"","decimal":0},{"indicator":{"id":"NY.GDP.MKTP.CD","value":"GDP (current US$)"},"country":{"id":"CO","value":"Colombia"},"countryiso3code":"COL","date":"1976","value":15341403660.4698,"unit":"","obs_status":"","decimal":0}]]